%YAML 1.1
%TAG !u! tag:unity3d.com,2011:
--- !u!74 &7400000
AnimationClip:
  m_ObjectHideFlags: 0
  m_CorrespondingSourceObject: {fileID: 0}
  m_PrefabInstance: {fileID: 0}
  m_PrefabAsset: {fileID: 0}
  m_Name: Walk
  serializedVersion: 6
  m_Legacy: 0
  m_Compressed: 0
  m_UseHighQualityCurve: 1
  m_RotationCurves: []
  m_CompressedRotationCurves: []
  m_EulerCurves: []
  m_PositionCurves: []
  m_ScaleCurves: []
  m_FloatCurves: []
  m_PPtrCurves:
  - curve:
    - time: 0
      value: {fileID: 21300000, guid: 54637c7004821424a8c7aa66dc069cc3, type: 3}
    - time: 0.06666667
      value: {fileID: 21300000, guid: 531f910fffed48347ac91123d449a4a7, type: 3}
    - time: 0.083333336
      value: {fileID: 21300000, guid: 5abde714ea8b09d4a8b2850a73fb1f6a, type: 3}
    - time: 0.18333334
      value: {fileID: 21300000, guid: fec3d0b99fe1fad4489f45c247169dd3, type: 3}
    - time: 0.25
      value: {fileID: 21300000, guid: 21a57fd0f4ae6e64e89ff02043620e75, type: 3}
    - time: 0.28333333
      value: {fileID: 21300000, guid: b0df62be1e90a0f4da16761885a13a16, type: 3}
    - time: 0.35
      value: {fileID: 21300000, guid: 9c845d1d3d50c264d84434a640b0b82c, type: 3}
    - time: 0.45
      value: {fileID: 21300000, guid: fe698267d5bc59c4ca7dbf2b00235ba5, type: 3}
    - time: 0.46666667
      value: {fileID: 21300000, guid: b445c8be65dc6e4448fa2b853791455e, type: 3}
    - time: 0.53333336
      value: {fileID: 21300000, guid: ff382ac11685837418dbfebb436b4108, type: 3}
    attribute: m_Sprite
    path: 
    classID: 212
    script: {fileID: 0}
  m_SampleRate: 60
  m_WrapMode: 0
  m_Bounds:
    m_Center: {x: 0, y: 0, z: 0}
    m_Extent: {x: 0, y: 0, z: 0}
  m_ClipBindingConstant:
    genericBindings:
    - serializedVersion: 2
      path: 0
      attribute: 0
      script: {fileID: 0}
      typeID: 212
      customType: 23
      isPPtrCurve: 1
    pptrCurveMapping:
    - {fileID: 21300000, guid: 54637c7004821424a8c7aa66dc069cc3, type: 3}
    - {fileID: 21300000, guid: 531f910fffed48347ac91123d449a4a7, type: 3}
    - {fileID: 21300000, guid: 5abde714ea8b09d4a8b2850a73fb1f6a, type: 3}
    - {fileID: 21300000, guid: fec3d0b99fe1fad4489f45c247169dd3, type: 3}
    - {fileID: 21300000, guid: 21a57fd0f4ae6e64e89ff02043620e75, type: 3}
    - {fileID: 21300000, guid: b0df62be1e90a0f4da16761885a13a16, type: 3}
    - {fileID: 21300000, guid: 9c845d1d3d50c264d84434a640b0b82c, type: 3}
    - {fileID: 21300000, guid: fe698267d5bc59c4ca7dbf2b00235ba5, type: 3}
    - {fileID: 21300000, guid: b445c8be65dc6e4448fa2b853791455e, type: 3}
    - {fileID: 21300000, guid: ff382ac11685837418dbfebb436b4108, type: 3}
  m_AnimationClipSettings:
    serializedVersion: 2
    m_AdditiveReferencePoseClip: {fileID: 0}
    m_AdditiveReferencePoseTime: 0
    m_StartTime: 0
    m_StopTime: 0.55
    m_OrientationOffsetY: 0
    m_Level: 0
    m_CycleOffset: 0
    m_HasAdditiveReferencePose: 0
    m_LoopTime: 1
    m_LoopBlend: 0
    m_LoopBlendOrientation: 0
    m_LoopBlendPositionY: 0
    m_LoopBlendPositionXZ: 0
    m_KeepOriginalOrientation: 0
    m_KeepOriginalPositionY: 1
    m_KeepOriginalPositionXZ: 0
    m_HeightFromFeet: 0
    m_Mirror: 0
  m_EditorCurves: []
  m_EulerEditorCurves: []
  m_HasGenericRootTransform: 0
  m_HasMotionFloatCurves: 0
  m_Events: []
